Simulate from ER model at specified exposure values — sim_er_new_exp • BayesERtools
…
ersim_new_exp_med_qi <- sim_er_new_exp(
  ermod_bin,
  exposure_to_sim_vec = seq(2, 6, by = 0.2),
  data_cov = dplyr::tibble(BHBA1C_5 = 4:10),
  n_draws_sim = 500, # This is set to make the example run faster
  output_type = "median_qi"
)

ersim_new_exp_med_qi
#> # A tibble: 147 × 12
#>    AUCss_1000 BHBA1C_5  .row .epred .epred.lower .epred.upper .linpred
#>         <dbl>    <int> <int>  <dbl>        <dbl>        <dbl>    <dbl>
#>  1        2          4     1 0.0233       0.0112       0.0497   -3.73 
#>  2        2          5     2 0.0415       0.0232       0.0750   -3.14 
#>  3        2          6     3 0.0721       0.0456       0.111    -2.55 
#>  4        2          7     4 0.121        0.0881       0.164    -1.98 
#>  5        2          8     5 0.198        0.158        0.241    -1.40 
#>  6        2          9     6 0.304        0.250        0.367    -0.827
#>  7        2         10     7 0.440        0.360        0.534    -0.241
#>  8        2.2        4     8 0.0254       0.0124       0.0530   -3.65 
#>  9        2.2        5     9 0.0452       0.0254       0.0802   -3.05 
#> 10        2.2        6    10 0.0785       0.0505       0.119    -2.46 
#> # ℹ 137 more rows
#> # ℹ 5 more variables: .linpred.lower <dbl>, .linpred.upper <dbl>, .width <dbl>,
#> #   .point <chr>, .interval <chr>
…
