Calculate marginal expected response for specified exposure values — sim_er_new_exp_marg • BayesERtools
…
ersim_new_exp_marg_med_qi <- sim_er_new_exp_marg(
  ermod_bin,
  exposure_to_sim_vec = seq(2, 6, by = 0.2),
  data_cov = dplyr::tibble(BHBA1C_5 = 4:10),
  n_subj_sim = NULL,
  n_draws_sim = 500, # This is set to make the example run faster
  output_type = "median_qi"
)

ersim_new_exp_marg_med_qi
#> # A tibble: 21 × 14
#>    .id_exposure AUCss_1000 .epred .epred.lower .epred.upper .linpred
#>           <int>      <dbl>  <dbl>        <dbl>        <dbl>    <dbl>
#>  1            1        2    0.171        0.142        0.203    -1.98
#>  2            2        2.2  0.182        0.154        0.214    -1.89
#>  3            3        2.4  0.194        0.164        0.226    -1.81
#>  4            4        2.6  0.206        0.175        0.238    -1.71
#>  5            5        2.8  0.219        0.186        0.253    -1.62
#>  6            6        3    0.232        0.199        0.269    -1.54
#>  7            7        3.2  0.245        0.211        0.284    -1.45
#>  8            8        3.4  0.260        0.222        0.301    -1.35
#>  9            9        3.6  0.273        0.233        0.320    -1.27
#> 10           10        3.8  0.288        0.243        0.339    -1.18
#> # ℹ 11 more rows
#> # ℹ 8 more variables: .linpred.lower <dbl>, .linpred.upper <dbl>,
#> #   .prediction <dbl>, .prediction.lower <dbl>, .prediction.upper <dbl>,
#> #   .width <dbl>, .point <chr>, .interval <chr>
…
